{
  "info" : {
    "output" : "boot.img",
    "json" : "boot.json",
    "headerVersion" : 4,
    "headerSize" : 1584,
    "pageSize" : 4096,
    "cmdline" : "",
    "osVersion" : "12.0.0",
    "osPatchLevel" : "2022-06-00",
    "imageSize" : 67108864,
    "signatureSize" : 4096
  },
  "kernel" : {
    "file" : "build/unzip_boot/kernel",
    "position" : 4096,
    "size" : 20048837
  },
  "ramdisk" : {
    "file" : "build/unzip_boot/ramdisk.img.lz4",
    "position" : 20054016,
    "size" : 1380090
  },
  "bootSignature" : {
    "file" : "build/unzip_boot/bootsig",
    "position" : 21434368,
    "size" : 4096
  }
}